<svg width="20" height="20" viewBox="0 0 20 20" fill="none" xmlns="http://www.w3.org/2000/svg">
<path fill-rule="evenodd" clip-rule="evenodd" d="M10.0001 7.36829L2.63184 0L0.000263319 2.63158L7.36855 9.99987L0 17.3684L2.63158 20L10.0001 12.6314L17.3687 20L20.0003 17.3684L12.6317 9.99987L20 2.63159L17.3684 9.59643e-06L10.0001 7.36829Z" fill="white"/>
</svg>
